^C:\USERS\MIGUEL\SOURCE\REPOS\QUIZ1-BASPROG3-MORETO\QUIZ1-BASPROG3-MORETO\DEBUG\BOMB.OBJ|C:\USERS\MIGUEL\SOURCE\REPOS\QUIZ1-BASPROG3-MORETO\QUIZ1-BASPROG3-MORETO\DEBUG\CRYSTAL.OBJ|C:\USERS\MIGUEL\SOURCE\REPOS\QUIZ1-BASPROG3-MORETO\QUIZ1-BASPROG3-MORETO\DEBUG\GAMBLINGGACHA.OBJ|C:\USERS\MIGUEL\SOURCE\REPOS\QUIZ1-BASPROG3-MORETO\QUIZ1-BASPROG3-MORETO\DEBUG\HEALTHPOTION.OBJ|C:\USERS\MIGUEL\SOURCE\REPOS\QUIZ1-BASPROG3-MORETO\QUIZ1-BASPROG3-MORETO\DEBUG\MAIN.OBJ|C:\USERS\MIGUEL\SOURCE\REPOS\QUIZ1-BASPROG3-MORETO\QUIZ1-BASPROG3-MORETO\DEBUG\PLAYER.OBJ|C:\USERS\MIGUEL\SOURCE\REPOS\QUIZ1-BASPROG3-MORETO\QUIZ1-BASPROG3-MORETO\DEBUG\R.OBJ|C:\USERS\MIGUEL\SOURCE\REPOS\QUIZ1-BASPROG3-MORETO\QUIZ1-BASPROG3-MORETO\DEBUG\ROLL.OBJ|C:\USERS\MIGUEL\SOURCE\REPOS\QUIZ1-BASPROG3-MORETO\QUIZ1-BASPROG3-MORETO\DEBUG\SR.OBJ|C:\USERS\MIGUEL\SOURCE\REPOS\QUIZ1-BASPROG3-MORETO\QUIZ1-BASPROG3-MORETO\DEBUG\SSR.OBJ
C:\USERS\MIGUEL\SOURCE\REPOS\QUIZ1-BASPROG3-MORETO\DEBUG\QUIZ1-BASPROG3-MORETO.EXE
C:\USERS\MIGUEL\SOURCE\REPOS\QUIZ1-BASPROG3-MORETO\DEBUG\QUIZ1-BASPROG3-MORETO.ILK
C:\USERS\MIGUEL\SOURCE\REPOS\QUIZ1-BASPROG3-MORETO\DEBUG\QUIZ1-BASPROG3-MORETO.PDB
